…
``` r
tdf <- tibble(x = 1:1e4, y = rnorm(1e4))
class(tdf)
```

    ## [1] "tbl_df"     "tbl"        "data.frame"

Tibbles print politely.

``` r
tdf
```

    ## # A tibble: 10,000 x 2
    ##        x       y
    ##    <int>   <dbl>
    ##  1     1 -1.20  
    ##  2     2  0.755 
    ##  3     3  0.942 
    ##  4     4 -0.657 
    ##  5     5 -0.264 
    ##  6     6 -0.0949
    ##  7     7  0.0638
    ##  8     8 -1.60  
    ##  9     9  0.756 
    ## 10    10 -0.0298
    ## # ... with 9,990 more rows
…
